<?xml version="1.0" encoding="UTF-8" standalone="no"?>
<svg
   xmlns:dc="http://purl.org/dc/elements/1.1/"
   xmlns:cc="http://creativecommons.org/ns#"
   xmlns:rdf="http://www.w3.org/1999/02/22-rdf-syntax-ns#"
   xmlns:svg="http://www.w3.org/2000/svg"
   xmlns="http://www.w3.org/2000/svg"
   id="svg8"
   version="1.1"
   viewBox="0 0 500 500"
   height="500mm"
   width="500mm">
  <defs
     id="defs2" />
  <metadata
     id="metadata5">
    <rdf:RDF>
      <cc:Work
         rdf:about="">
        <dc:format>image/svg+xml</dc:format>
        <dc:type
           rdf:resource="http://purl.org/dc/dcmitype/StillImage" />
        <dc:title></dc:title>
      </cc:Work>
    </rdf:RDF>
  </metadata>
  <g
     style="display:none"
     id="layer4">
    <rect
       ry="50"
       rx="50"
       y="0"
       x="0"
       height="500"
       width="500"
       id="rect967"
       style="display:inline;opacity:1;fill:#fc3641;fill-opacity:1;fill-rule:nonzero;stroke:none;stroke-width:0.35277778;stroke-linecap:round;stroke-linejoin:miter;stroke-miterlimit:4;stroke-dasharray:none;stroke-dashoffset:0;stroke-opacity:1" />
  </g>
  <g
     style="display:inline"
     id="layer2">
    <g
       style="fill:#f9f9f9"
       id="g979">
      <path
         style="opacity:1;fill:#f9f9f9;fill-opacity:1;fill-rule:nonzero;stroke:none;stroke-width:1.21636021;stroke-linecap:round;stroke-linejoin:miter;stroke-miterlimit:4;stroke-dasharray:none;stroke-dashoffset:0;stroke-opacity:1"
         d="M 1771.4297,607.79883 V 273.83789 c 0,-42.72808 -17.84,-55.58789 -40,-55.58789 -36.6368,0 -54.4588,95.67653 -63.1699,204.47461 a 893.25353,893.25353 0 0 1 28.2695,39.53125 893.25353,893.25353 0 0 1 44.4258,77.44922 893.25353,893.25353 0 0 1 30.4746,68.09375 z"
         id="path847"
         transform="scale(0.26458333)" />
      <path
         style="opacity:1;fill:#f9f9f9;fill-opacity:1;fill-rule:nonzero;stroke:none;stroke-width:1.21636021;stroke-linecap:round;stroke-linejoin:miter;stroke-miterlimit:4;stroke-dasharray:none;stroke-dashoffset:0;stroke-opacity:1"
         d="m 1660,1478.3418 v 159.8828 c 0,18.4424 17.84,33.2891 40,33.2891 h 31.4297 c 22.16,0 40,-14.8467 40,-33.2891 v -355.9219 a 893.25353,893.25353 0 0 1 -3.8067,10.4278 893.25353,893.25353 0 0 1 -38.8378,80.4004 893.25353,893.25353 0 0 1 -46.67,76.1191 893.25353,893.25353 0 0 1 -22.1152,29.0918 z"
         id="path845"
         transform="scale(0.26458333)" />
    </g>
  </g>
  <g
     style="display:none"
     id="g839">
    <path
       style="opacity:1;fill:#e6e6e6;fill-opacity:1;fill-rule:nonzero;stroke:none;stroke-width:0.32182863;stroke-linecap:round;stroke-linejoin:miter;stroke-miterlimit:4;stroke-dasharray:none;stroke-dashoffset:0;stroke-opacity:1"
       d="m 458.10744,57.745235 c -19.77454,0 -18.89911,105.235725 -18.89911,130.727415 v 42.23412 38.58646 164.15379 c 0,4.87956 4.72016,8.80774 10.58333,8.80774 h 8.31578 c 5.86316,0 10.58333,-3.92818 10.58333,-8.80774 V 269.29323 230.70677 72.452865 c 0,-11.305138 -4.72017,-14.70763 -10.58333,-14.70763 z"
       id="path837" />
  </g>
  <g
     style="display:inline"
     transform="translate(0,203)"
     id="layer1">
    <g
       id="g824">
      <circle
         style="opacity:1;fill:#ffffff;fill-opacity:1;fill-rule:nonzero;stroke:none;stroke-width:0.3589749;stroke-linecap:round;stroke-linejoin:miter;stroke-miterlimit:4;stroke-dasharray:none;stroke-dashoffset:0;stroke-opacity:1"
         id="path815"
         cx="250"
         cy="47"
         r="225" />
      <circle
         style="opacity:1;fill:#e6e6e6;fill-opacity:1;fill-rule:nonzero;stroke:none;stroke-width:0.28859508;stroke-linecap:round;stroke-linejoin:miter;stroke-miterlimit:4;stroke-dasharray:none;stroke-dashoffset:0;stroke-opacity:1"
         id="path817"
         cx="250"
         cy="47"
         r="159.85835" />
      <circle
         style="opacity:1;fill:#f9f9f9;fill-opacity:1;fill-rule:nonzero;stroke:none;stroke-width:0.27042723;stroke-linecap:round;stroke-linejoin:miter;stroke-miterlimit:4;stroke-dasharray:none;stroke-dashoffset:0;stroke-opacity:1"
         id="path819"
         cx="250"
         cy="47"
         r="142.69801" />
    </g>
  </g>
</svg>
